{ "photos": { "page": 1, "pages": 2, "perpage": 100, "total": "113", 
    "photo": [
      { "id": "14711402444", "owner": "94139373@N05", "secret": "cba8185672", "server": "3863", "farm": 4, "title": "IMG_0749", "ispublic": 1, "isfriend": 0, "isfamily": 0, "originalsecret": "dd5e5ae227", "originalformat": "jpg" },
      { "id": "14527118560", "owner": "94139373@N05", "secret": "b3d2781ba9", "server": "2914", "farm": 3, "title": "IMG_0682", "ispublic": 1, "isfriend": 0, "isfamily": 0, "originalsecret": "a9ca8e2470", "originalformat": "jpg" },
      { "id": "14527140188", "owner": "94139373@N05", "secret": "18b2e7c883", "server": "5577", "farm": 6, "title": "IMG_0673", "ispublic": 1, "isfriend": 0, "isfamily": 0, "originalsecret": "f4eaa1732d", "originalformat": "jpg" },
      { "id": "14713498212", "owner": "94139373@N05", "secret": "6ea17489ef", "server": "2923", "farm": 3, "title": "IMG_0666", "ispublic": 1, "isfriend": 0, "isfamily": 0, "originalsecret": "221fa5e21a", "originalformat": "jpg" },
      { "id": "14711399814", "owner": "94139373@N05", "secret": "c898c2d8e5", "server": "5576", "farm": 6, "title": "IMG_0578", "ispublic": 1, "isfriend": 0, "isfamily": 0, "originalsecret": "783cb0aa91", "originalformat": "jpg" },
      { "id": "14690793566", "owner": "94139373@N05", "secret": "075b16991c", "server": "2899", "farm": 3, "title": "IMG_0575", "ispublic": 1, "isfriend": 0, "isfamily": 0, "originalsecret": "3334cddac5", "originalformat": "jpg" },
      { "id": "14710613911", "owner": "94139373@N05", "secret": "feb3416b1d", "server": "2937", "farm": 3, "title": "IMG_0572", "ispublic": 1, "isfriend": 0, "isfamily": 0, "originalsecret": "ca6a6a8bf2", "originalformat": "jpg" },
      { "id": "14527132779", "owner": "94139373@N05", "secret": "b46a0d39a6", "server": "5578", "farm": 6, "title": "IMG_0570", "ispublic": 1, "isfriend": 0, "isfamily": 0, "originalsecret": "4210fc13b5", "originalformat": "jpg" },
      { "id": "14527132429", "owner": "94139373@N05", "secret": "b14c3b711c", "server": "5576", "farm": 6, "title": "IMG_0558", "ispublic": 1, "isfriend": 0, "isfamily": 0, "originalsecret": "56c27bae08", "originalformat": "jpg" },
      { "id": "14713783085", "owner": "94139373@N05", "secret": "7e276de26d", "server": "2930", "farm": 3, "title": "IMG_0551", "ispublic": 1, "isfriend": 0, "isfamily": 0, "originalsecret": "a7910ec282", "originalformat": "jpg" },
      { "id": "14527135808", "owner": "94139373@N05", "secret": "bcd5b16625", "server": "3902", "farm": 4, "title": "IMG_0547", "ispublic": 1, "isfriend": 0, "isfamily": 0, "originalsecret": "ce2f626923", "originalformat": "jpg" },
      { "id": "14713493772", "owner": "94139373@N05", "secret": "7f37e240cb", "server": "3879", "farm": 4, "title": "IMG_0546", "ispublic": 1, "isfriend": 0, "isfamily": 0, "originalsecret": "21f80a5273", "originalformat": "jpg" },
      { "id": "14713493422", "owner": "94139373@N05", "secret": "755ce5b71f", "server": "3891", "farm": 4, "title": "IMG_0545", "ispublic": 1, "isfriend": 0, "isfamily": 0, "originalsecret": "192cdb79c1", "originalformat": "jpg" },
      { "id": "14527134238", "owner": "94139373@N05", "secret": "90a3cc6913", "server": "5579", "farm": 6, "title": "IMG_0543", "ispublic": 1, "isfriend": 0, "isfamily": 0, "originalsecret": "fd9671589c", "originalformat": "jpg" },
      { "id": "14527133508", "owner": "94139373@N05", "secret": "5e198b8259", "server": "2929", "farm": 3, "title": "IMG_0399", "ispublic": 1, "isfriend": 0, "isfamily": 0, "originalsecret": "35b51df034", "originalformat": "jpg" },
      { "id": "14711393734", "owner": "94139373@N05", "secret": "c96028c63a", "server": "3857", "farm": 4, "title": "IMG_0398", "ispublic": 1, "isfriend": 0, "isfamily": 0, "originalsecret": "3f88979d79", "originalformat": "jpg" },
      { "id": "14733648943", "owner": "94139373@N05", "secret": "b34869e839", "server": "2919", "farm": 3, "title": "IMG_0397", "ispublic": 1, "isfriend": 0, "isfamily": 0, "originalsecret": "9f507bdf18", "originalformat": "jpg" },
      { "id": "14527109180", "owner": "94139373@N05", "secret": "8699eaaa25", "server": "3911", "farm": 4, "title": "IMG_0396", "ispublic": 1, "isfriend": 0, "isfamily": 0, "originalsecret": "9f8112a021", "originalformat": "jpg" },
      { "id": "14690786836", "owner": "94139373@N05", "secret": "234501318d", "server": "3918", "farm": 4, "title": "IMG_0395", "ispublic": 1, "isfriend": 0, "isfamily": 0, "originalsecret": "957d5752f8", "originalformat": "jpg" },
      { "id": "14527130918", "owner": "94139373@N05", "secret": "49b0d3160b", "server": "2932", "farm": 3, "title": "IMG_0393", "ispublic": 1, "isfriend": 0, "isfamily": 0, "originalsecret": "27dd72a072", "originalformat": "jpg" },
      { "id": "14711391274", "owner": "94139373@N05", "secret": "b04baa0beb", "server": "3885", "farm": 4, "title": "IMG_0389", "ispublic": 1, "isfriend": 0, "isfamily": 0, "originalsecret": "ac1e6016e7", "originalformat": "jpg" },
      { "id": "14713489142", "owner": "94139373@N05", "secret": "6580352d63", "server": "3889", "farm": 4, "title": "IMG_0332", "ispublic": 1, "isfriend": 0, "isfamily": 0, "originalsecret": "929f92c750", "originalformat": "jpg" },
      { "id": "14711390274", "owner": "94139373@N05", "secret": "98c5b3fe4d", "server": "3900", "farm": 4, "title": "IMG_0312", "ispublic": 1, "isfriend": 0, "isfamily": 0, "originalsecret": "fa31a9a81a", "originalformat": "jpg" },
      { "id": "14713488162", "owner": "94139373@N05", "secret": "5c7231e6dd", "server": "2896", "farm": 3, "title": "IMG_0309", "ispublic": 1, "isfriend": 0, "isfamily": 0, "originalsecret": "ed27db1fb7", "originalformat": "jpg" },
      { "id": "14711388684", "owner": "94139373@N05", "secret": "4c23ecc518", "server": "2929", "farm": 3, "title": "IMG_0303", "ispublic": 1, "isfriend": 0, "isfamily": 0, "originalsecret": "fc9ee25c38", "originalformat": "jpg" },
      { "id": "14733644133", "owner": "94139373@N05", "secret": "528b04877b", "server": "2921", "farm": 3, "title": "IMG_0302", "ispublic": 1, "isfriend": 0, "isfamily": 0, "originalsecret": "8fd0c9b147", "originalformat": "jpg" },
      { "id": "14690782536", "owner": "94139373@N05", "secret": "d2fc3e8d1c", "server": "5587", "farm": 6, "title": "IMG_0295", "ispublic": 1, "isfriend": 0, "isfamily": 0, "originalsecret": "b0ed3313a2", "originalformat": "jpg" },
      { "id": "14527331677", "owner": "94139373@N05", "secret": "cc0a00dd42", "server": "5594", "farm": 6, "title": "IMG_0293", "ispublic": 1, "isfriend": 0, "isfamily": 0, "originalsecret": "ca254c303a", "originalformat": "jpg" },
      { "id": "14713485122", "owner": "94139373@N05", "secret": "79c8302319", "server": "3895", "farm": 4, "title": "IMG_0290", "ispublic": 1, "isfriend": 0, "isfamily": 0, "originalsecret": "e936fc784a", "originalformat": "jpg" },
      { "id": "14690781286", "owner": "94139373@N05", "secret": "f5217e4a02", "server": "3923", "farm": 4, "title": "IMG_0285", "ispublic": 1, "isfriend": 0, "isfamily": 0, "originalsecret": "74d604b8e2", "originalformat": "jpg" },
      { "id": "14527102770", "owner": "94139373@N05", "secret": "5da2fd017c", "server": "3853", "farm": 4, "title": "IMG_0284", "ispublic": 1, "isfriend": 0, "isfamily": 0, "originalsecret": "fe84a628ba", "originalformat": "jpg" },
      { "id": "14527121039", "owner": "94139373@N05", "secret": "83af2dbd92", "server": "2925", "farm": 3, "title": "IMG_0143", "ispublic": 1, "isfriend": 0, "isfamily": 0, "originalsecret": "cba12c79ea", "originalformat": "jpg" },
      { "id": "14713770505", "owner": "94139373@N05", "secret": "9e5a1b031c", "server": "3868", "farm": 4, "title": "IMG_0061", "ispublic": 1, "isfriend": 0, "isfamily": 0, "originalsecret": "2f37b231d6", "originalformat": "jpg" },
      { "id": "14527101180", "owner": "94139373@N05", "secret": "7cea074fb5", "server": "3840", "farm": 4, "title": "IMG_0130", "ispublic": 1, "isfriend": 0, "isfamily": 0, "originalsecret": "c314238cdd", "originalformat": "jpg" },
      { "id": "14527328427", "owner": "94139373@N05", "secret": "e63d3df385", "server": "3902", "farm": 4, "title": "IMG_0113", "ispublic": 1, "isfriend": 0, "isfamily": 0, "originalsecret": "e772a0eb08", "originalformat": "jpg" },
      { "id": "14713481472", "owner": "94139373@N05", "secret": "82b617c49f", "server": "2895", "farm": 3, "title": "IMG_0021", "ispublic": 1, "isfriend": 0, "isfamily": 0, "originalsecret": "85b6a5564b", "originalformat": "jpg" },
      { "id": "14690777386", "owner": "94139373@N05", "secret": "2015353d08", "server": "2898", "farm": 3, "title": "DSC_2180", "ispublic": 1, "isfriend": 0, "isfamily": 0, "originalsecret": "b75af696be", "originalformat": "jpg" },
      { "id": "14711381604", "owner": "94139373@N05", "secret": "bb2a131d38", "server": "3915", "farm": 4, "title": "DSC_2173", "ispublic": 1, "isfriend": 0, "isfamily": 0, "originalsecret": "46c351b4d6", "originalformat": "jpg" },
      { "id": "14690776006", "owner": "94139373@N05", "secret": "871c318bc2", "server": "5587", "farm": 6, "title": "DSC_2090", "ispublic": 1, "isfriend": 0, "isfamily": 0, "originalsecret": "05e1640f43", "originalformat": "jpg" },
      { "id": "14527097660", "owner": "94139373@N05", "secret": "39c9f1e532", "server": "3851", "farm": 4, "title": "DSC_2079", "ispublic": 1, "isfriend": 0, "isfamily": 0, "originalsecret": "3772473afc", "originalformat": "jpg" },
      { "id": "14527097130", "owner": "94139373@N05", "secret": "a1124321c2", "server": "2908", "farm": 3, "title": "DSC_2068", "ispublic": 1, "isfriend": 0, "isfamily": 0, "originalsecret": "b2e0499ab0", "originalformat": "jpg" },
      { "id": "14527096710", "owner": "94139373@N05", "secret": "ed53a5f1e4", "server": "3872", "farm": 4, "title": "DSC_2038", "ispublic": 1, "isfriend": 0, "isfamily": 0, "originalsecret": "d79b4079d3", "originalformat": "jpg" },
      { "id": "14711379354", "owner": "94139373@N05", "secret": "64b9542618", "server": "3873", "farm": 4, "title": "DSC_2028", "ispublic": 1, "isfriend": 0, "isfamily": 0, "originalsecret": "926a458b95", "originalformat": "jpg" },
      { "id": "14527095290", "owner": "94139373@N05", "secret": "aaceb4fbb0", "server": "5578", "farm": 6, "title": "DSC_2006", "ispublic": 1, "isfriend": 0, "isfamily": 0, "originalsecret": "57bb3bc457", "originalformat": "jpg" },
      { "id": "14713476052", "owner": "94139373@N05", "secret": "aaee391098", "server": "2919", "farm": 3, "title": "DSC_2004", "ispublic": 1, "isfriend": 0, "isfamily": 0, "originalsecret": "b968591210", "originalformat": "jpg" },
      { "id": "14527116998", "owner": "94139373@N05", "secret": "1d73e4f44d", "server": "2938", "farm": 3, "title": "DSC_2000", "ispublic": 1, "isfriend": 0, "isfamily": 0, "originalsecret": "e76596b53f", "originalformat": "jpg" },
      { "id": "14710593251", "owner": "94139373@N05", "secret": "f85402aa8c", "server": "3843", "farm": 4, "title": "DSC_1998", "ispublic": 1, "isfriend": 0, "isfamily": 0, "originalsecret": "99f801ca7b", "originalformat": "jpg" },
      { "id": "14527321417", "owner": "94139373@N05", "secret": "472a9aba50", "server": "2911", "farm": 3, "title": "DSC_1978", "ispublic": 1, "isfriend": 0, "isfamily": 0, "originalsecret": "37a8b75623", "originalformat": "jpg" },
      { "id": "14713473892", "owner": "94139373@N05", "secret": "90a6ceddb2", "server": "2906", "farm": 3, "title": "DSC_1970", "ispublic": 1, "isfriend": 0, "isfamily": 0, "originalsecret": "1c481897f4", "originalformat": "jpg" },
      { "id": "14710591601", "owner": "94139373@N05", "secret": "c7b5c71c6b", "server": "3840", "farm": 4, "title": "DSC_1953", "ispublic": 1, "isfriend": 0, "isfamily": 0, "originalsecret": "1d23323dc8", "originalformat": "jpg" },
      { "id": "14710591101", "owner": "94139373@N05", "secret": "ea19eb378e", "server": "3863", "farm": 4, "title": "DSC_1952", "ispublic": 1, "isfriend": 0, "isfamily": 0, "originalsecret": "2e648ec960", "originalformat": "jpg" },
      { "id": "14711373814", "owner": "94139373@N05", "secret": "429304a0dd", "server": "3848", "farm": 4, "title": "DSC_1950", "ispublic": 1, "isfriend": 0, "isfamily": 0, "originalsecret": "d015391049", "originalformat": "jpg" },
      { "id": "14733630113", "owner": "94139373@N05", "secret": "9397f89ac4", "server": "5587", "farm": 6, "title": "DSC_1948", "ispublic": 1, "isfriend": 0, "isfamily": 0, "originalsecret": "f297cc5020", "originalformat": "jpg" },
      { "id": "14713759175", "owner": "94139373@N05", "secret": "ec600931ec", "server": "3845", "farm": 4, "title": "DSC_1946", "ispublic": 1, "isfriend": 0, "isfamily": 0, "originalsecret": "645b655e98", "originalformat": "jpg" },
      { "id": "14527089950", "owner": "94139373@N05", "secret": "7219428241", "server": "3884", "farm": 4, "title": "DSC_1943", "ispublic": 1, "isfriend": 0, "isfamily": 0, "originalsecret": "1660a32faa", "originalformat": "jpg" },
      { "id": "14710588931", "owner": "94139373@N05", "secret": "32126d0f1b", "server": "3891", "farm": 4, "title": "DSC_1942", "ispublic": 1, "isfriend": 0, "isfamily": 0, "originalsecret": "b52a9b1af9", "originalformat": "jpg" },
      { "id": "14733628303", "owner": "94139373@N05", "secret": "400e0c9c6a", "server": "2939", "farm": 3, "title": "DSC_1932", "ispublic": 1, "isfriend": 0, "isfamily": 0, "originalsecret": "56b307bf76", "originalformat": "jpg" },
      { "id": "14711370864", "owner": "94139373@N05", "secret": "c2e79cc865", "server": "5564", "farm": 6, "title": "DSC_1928", "ispublic": 1, "isfriend": 0, "isfamily": 0, "originalsecret": "4d9c92dc7a", "originalformat": "jpg" },
      { "id": "14711370484", "owner": "94139373@N05", "secret": "b06146377e", "server": "2927", "farm": 3, "title": "DSC_1911", "ispublic": 1, "isfriend": 0, "isfamily": 0, "originalsecret": "a550a7b317", "originalformat": "jpg" },
      { "id": "14690766036", "owner": "94139373@N05", "secret": "710e2a82fe", "server": "2914", "farm": 3, "title": "DSC_1886", "ispublic": 1, "isfriend": 0, "isfamily": 0, "originalsecret": "734d061d55", "originalformat": "jpg" },
      { "id": "14733626433", "owner": "94139373@N05", "secret": "54b68637af", "server": "3888", "farm": 4, "title": "DSC_1848", "ispublic": 1, "isfriend": 0, "isfamily": 0, "originalsecret": "59c0c8973f", "originalformat": "jpg" },
      { "id": "14710585971", "owner": "94139373@N05", "secret": "0b7e5d3a74", "server": "3841", "farm": 4, "title": "DSC_1844", "ispublic": 1, "isfriend": 0, "isfamily": 0, "originalsecret": "3e0d07f930", "originalformat": "jpg" },
      { "id": "14527085970", "owner": "94139373@N05", "secret": "d0ebb3e67d", "server": "3855", "farm": 4, "title": "DSC_1792", "ispublic": 1, "isfriend": 0, "isfamily": 0, "originalsecret": "c52f158c45", "originalformat": "jpg" },
      { "id": "14710584791", "owner": "94139373@N05", "secret": "1fff59a18a", "server": "3877", "farm": 4, "title": "DSC_1758", "ispublic": 1, "isfriend": 0, "isfamily": 0, "originalsecret": "1783fbd19a", "originalformat": "jpg" },
      { "id": "14690763546", "owner": "94139373@N05", "secret": "d2b1b1cbd6", "server": "2920", "farm": 3, "title": "DSC_1702", "ispublic": 1, "isfriend": 0, "isfamily": 0, "originalsecret": "40a0d165a2", "originalformat": "jpg" },
      { "id": "14711367404", "owner": "94139373@N05", "secret": "1d1e25bafc", "server": "3883", "farm": 4, "title": "DSC_1687", "ispublic": 1, "isfriend": 0, "isfamily": 0, "originalsecret": "bd9ca399d3", "originalformat": "jpg" },
      { "id": "14713752505", "owner": "94139373@N05", "secret": "a46c772624", "server": "3922", "farm": 4, "title": "DSC_1685", "ispublic": 1, "isfriend": 0, "isfamily": 0, "originalsecret": "f1827ebe3d", "originalformat": "jpg" },
      { "id": "14710583011", "owner": "94139373@N05", "secret": "522dbe0725", "server": "3878", "farm": 4, "title": "DSC_1683", "ispublic": 1, "isfriend": 0, "isfamily": 0, "originalsecret": "6046ea4101", "originalformat": "jpg" },
      { "id": "14713751585", "owner": "94139373@N05", "secret": "a7dfd894bc", "server": "3920", "farm": 4, "title": "DSC_1671", "ispublic": 1, "isfriend": 0, "isfamily": 0, "originalsecret": "817c62fe0f", "originalformat": "jpg" },
      { "id": "14733622153", "owner": "94139373@N05", "secret": "7e0f082d5a", "server": "3854", "farm": 4, "title": "DSC_1669", "ispublic": 1, "isfriend": 0, "isfamily": 0, "originalsecret": "d2eca492f7", "originalformat": "jpg" },
      { "id": "14527101049", "owner": "94139373@N05", "secret": "a25dce9805", "server": "2924", "farm": 3, "title": "DSC_1667", "ispublic": 1, "isfriend": 0, "isfamily": 0, "originalsecret": "5a1dbc4946", "originalformat": "jpg" },
      { "id": "14527081320", "owner": "94139373@N05", "secret": "75a3436490", "server": "3908", "farm": 4, "title": "DSC_1606", "ispublic": 1, "isfriend": 0, "isfamily": 0, "originalsecret": "48097c2bd1", "originalformat": "jpg" },
      { "id": "14527099999", "owner": "94139373@N05", "secret": "df8c74f213", "server": "5569", "farm": 6, "title": "DSC_1597", "ispublic": 1, "isfriend": 0, "isfamily": 0, "originalsecret": "f48913b639", "originalformat": "jpg" },
      { "id": "14733619973", "owner": "94139373@N05", "secret": "18fa685f62", "server": "3852", "farm": 4, "title": "DSC_1593", "ispublic": 1, "isfriend": 0, "isfamily": 0, "originalsecret": "a5d07e58a4", "originalformat": "jpg" },
      { "id": "14713748715", "owner": "94139373@N05", "secret": "12dbf7a575", "server": "5554", "farm": 6, "title": "DSC_1569", "ispublic": 1, "isfriend": 0, "isfamily": 0, "originalsecret": "a241852b75", "originalformat": "jpg" },
      { "id": "14713461192", "owner": "94139373@N05", "secret": "4ca9756e3b", "server": "2930", "farm": 3, "title": "DSC_1246", "ispublic": 1, "isfriend": 0, "isfamily": 0, "originalsecret": "899b517743", "originalformat": "jpg" },
      { "id": "14527097939", "owner": "94139373@N05", "secret": "d586f120b0", "server": "2905", "farm": 3, "title": "DSC_1208", "ispublic": 1, "isfriend": 0, "isfamily": 0, "originalsecret": "308b3787d0", "originalformat": "jpg" },
      { "id": "14527097439", "owner": "94139373@N05", "secret": "ebce747cf4", "server": "5563", "farm": 6, "title": "DSC_0588", "ispublic": 1, "isfriend": 0, "isfamily": 0, "originalsecret": "070e3dc233", "originalformat": "jpg" },
      { "id": "14690756796", "owner": "94139373@N05", "secret": "d85d05158a", "server": "3888", "farm": 4, "title": "DSC_0580", "ispublic": 1, "isfriend": 0, "isfamily": 0, "originalsecret": "e7dd94bfb9", "originalformat": "jpg" },
      { "id": "14690756176", "owner": "94139373@N05", "secret": "ba7ea088c7", "server": "3915", "farm": 4, "title": "DSC_0526", "ispublic": 1, "isfriend": 0, "isfamily": 0, "originalsecret": "40c0a149f8", "originalformat": "jpg" },
      { "id": "14527076430", "owner": "94139373@N05", "secret": "95268d2b59", "server": "5578", "farm": 6, "title": "DSC_0525", "ispublic": 1, "isfriend": 0, "isfamily": 0, "originalsecret": "647b33ef4a", "originalformat": "jpg" },
      { "id": "14711359524", "owner": "94139373@N05", "secret": "c7d68cf452", "server": "5573", "farm": 6, "title": "DSC_0497", "ispublic": 1, "isfriend": 0, "isfamily": 0, "originalsecret": "79a4b07375", "originalformat": "jpg" },
      { "id": "14527075420", "owner": "94139373@N05", "secret": "057ae5072a", "server": "3845", "farm": 4, "title": "DSC_0487", "ispublic": 1, "isfriend": 0, "isfamily": 0, "originalsecret": "b38f3d1003", "originalformat": "jpg" },
      { "id": "14527098308", "owner": "94139373@N05", "secret": "41655eef6c", "server": "3914", "farm": 4, "title": "DSC_0475", "ispublic": 1, "isfriend": 0, "isfamily": 0, "originalsecret": "0c3e458e55", "originalformat": "jpg" },
      { "id": "14733614093", "owner": "94139373@N05", "secret": "f989902bcb", "server": "3857", "farm": 4, "title": "DSC_0471", "ispublic": 1, "isfriend": 0, "isfamily": 0, "originalsecret": "c03a5bdeea", "originalformat": "jpg" },
      { "id": "14711357764", "owner": "94139373@N05", "secret": "8a81c7efbc", "server": "3868", "farm": 4, "title": "Portfolio - 30", "ispublic": 1, "isfriend": 0, "isfamily": 0, "originalsecret": "822ffaf9ee", "originalformat": "jpg" },
      { "id": "14527096838", "owner": "94139373@N05", "secret": "fc480de557", "server": "2915", "farm": 3, "title": "Portfolio - 29", "ispublic": 1, "isfriend": 0, "isfamily": 0, "originalsecret": "e0e898a5f6", "originalformat": "jpg" },
      { "id": "14527301057", "owner": "94139373@N05", "secret": "9f51619819", "server": "3852", "farm": 4, "title": "Portfolio - 28", "ispublic": 1, "isfriend": 0, "isfamily": 0, "originalsecret": "6e7dcf5616", "originalformat": "jpg" },
      { "id": "14711356194", "owner": "94139373@N05", "secret": "5ae17cabf0", "server": "3853", "farm": 4, "title": "Portfolio - 27", "ispublic": 1, "isfriend": 0, "isfamily": 0, "originalsecret": "564c051847", "originalformat": "jpg" },
      { "id": "14711355494", "owner": "94139373@N05", "secret": "b6fd656dc5", "server": "3891", "farm": 4, "title": "Portfolio - 14", "ispublic": 1, "isfriend": 0, "isfamily": 0, "originalsecret": "7d489f2d72", "originalformat": "jpg" },
      { "id": "14690750406", "owner": "94139373@N05", "secret": "610ccfe6bc", "server": "3887", "farm": 4, "title": "Portfolio - 24", "ispublic": 1, "isfriend": 0, "isfamily": 0, "originalsecret": "1e8b612760", "originalformat": "jpg" },
      { "id": "14527093958", "owner": "94139373@N05", "secret": "6089a74238", "server": "5581", "farm": 6, "title": "Portfolio - 25", "ispublic": 1, "isfriend": 0, "isfamily": 0, "originalsecret": "fa50c744cf", "originalformat": "jpg" },
      { "id": "14527088719", "owner": "94139373@N05", "secret": "611a776542", "server": "3861", "farm": 4, "title": "Portfolio - 32", "ispublic": 1, "isfriend": 0, "isfamily": 0, "originalsecret": "d53beebfee", "originalformat": "jpg" },
      { "id": "14713451462", "owner": "94139373@N05", "secret": "a048a9824f", "server": "2937", "farm": 3, "title": "Portfolio - 33", "ispublic": 1, "isfriend": 0, "isfamily": 0, "originalsecret": "26d6bf607a", "originalformat": "jpg" },
      { "id": "14527296677", "owner": "94139373@N05", "secret": "baa284bc55", "server": "3910", "farm": 4, "title": "Portfolio - 35", "ispublic": 1, "isfriend": 0, "isfamily": 0, "originalsecret": "4bef58acd4", "originalformat": "jpg" },
      { "id": "14527067910", "owner": "94139373@N05", "secret": "c30e7236a8", "server": "3901", "farm": 4, "title": "RTHP - 01", "ispublic": 1, "isfriend": 0, "isfamily": 0, "originalsecret": "264cf6b6f5", "originalformat": "jpg" },
      { "id": "14527067410", "owner": "94139373@N05", "secret": "8f60d7bca5", "server": "2911", "farm": 3, "title": "OMOAMUSIC - 01", "ispublic": 1, "isfriend": 0, "isfamily": 0, "originalsecret": "395e805bfe", "originalformat": "jpg" },
      { "id": "14713735935", "owner": "94139373@N05", "secret": "9dbd1655cb", "server": "5581", "farm": 6, "title": "forest_w", "ispublic": 1, "isfriend": 0, "isfamily": 0, "originalsecret": "25e8e74993", "originalformat": "jpg" },
      { "id": "14713735515", "owner": "94139373@N05", "secret": "08e5bd20a5", "server": "5570", "farm": 6, "title": "OMOAMUSIC - 3", "ispublic": 1, "isfriend": 0, "isfamily": 0, "originalsecret": "97e7024291", "originalformat": "jpg" },
      { "id": "14690745696", "owner": "94139373@N05", "secret": "2bdd64a37d", "server": "5553", "farm": 6, "title": "OMOAMUSIC - 4", "ispublic": 1, "isfriend": 0, "isfamily": 0, "originalsecret": "4c88e06508", "originalformat": "jpg" }
    ] }, "stat": "ok" }